logs/simv.log
Command: /users/epnimo/Project/./simv +APB2AXI_DEBUG -l logs/simv.log
Chronologic VCS simulator copyright 1991-2022
Contains Synopsys proprietary information.
Compiler version T-2022.06-SP2_Full64; Runtime version T-2022.06-SP2_Full64;  Nov 26 19:20 2025
UVM_INFO /eda/synopsys/2022-23/RHELx86/VCS_2022.06-SP2/etc/uvm-1.2/base/uvm_root.svh(402) @ 0: reporter [UVM/RELNOTES] 
----------------------------------------------------------------
UVM-1.2.Synopsys
(C) 2007-2014 Mentor Graphics Corporation
(C) 2007-2014 Cadence Design Systems, Inc.
(C) 2006-2014 Synopsys, Inc.
(C) 2011-2013 Cypress Semiconductor Corp.
(C) 2013-2014 NVIDIA Corporation
----------------------------------------------------------------

  ***********       IMPORTANT RELEASE NOTES         ************

  You are using a version of the UVM library that has been compiled
  with `UVM_NO_DEPRECATED undefined.
  See http://www.eda.org/svdb/view.php?id=3313 for more details.

  You are using a version of the UVM library that has been compiled
  with `UVM_OBJECT_DO_NOT_NEED_CONSTRUCTOR undefined.
  See http://www.eda.org/svdb/view.php?id=3770 for more details.

      (Specify +UVM_NO_RELNOTES to turn off this notice)

UVM_INFO @ 0: reporter [RNTST] Running test apb2axi_bringup_test...
UVM_INFO /users/epnimo/Project/tb/pkg/apb2axi_tb_pkg.sv(15) @ 0: reporter [APB2AXI_PKG] APB2AXI_DEBUG flag detected → quiet mode (UVM_NONE)
UVM_INFO /eda/synopsys/2022-23/RHELx86/VCS_2022.06-SP2/etc/uvm-1.2/base/uvm_root.svh(589) @ 0: reporter [UVMTOP] UVM testbench topology:
-----------------------------------------------
Name          Type                  Size  Value
-----------------------------------------------
uvm_test_top  apb2axi_bringup_test  -     @346 
  env         apb2axi_env           -     @361 
-----------------------------------------------

UVM_INFO tb/env/apb2axi_env.sv(44) @ 0: uvm_test_top.env [ENV] APB2AXI Environment built successfully.
UVM_INFO tb/agent/apb_agent.sv(28) @ 0: uvm_test_top.env.apb_ag [APB_AGENT] Sequencer path = uvm_test_top.env.apb_ag.apb_seqr
UVM_INFO tb/env/apb2axi_env.sv(58) @ 0: uvm_test_top.env [ENV] Scoreboard connections established.
UVM_INFO tb/agent/apb_driver.sv(21) @ 0: uvm_test_top.env.apb_ag.apb_drv [APB_DRIVER] Entering run_phase() loop
UVM_INFO tb/tests/apb2axi_bringup_test.sv(26) @ 0: uvm_test_top [BRINGUP_TEST] Starting bring-up test, seq_sel=BRINGUP
UVM_INFO tb/tests/apb2axi_bringup_test.sv(35) @ 0: uvm_test_top [BRINGUP_TEST] Running (original) bringup sequence
UVM_INFO tb/seq/apb2axi_bringup_seq.sv(27) @ 0: uvm_test_top.env.apb_ag.apb_seqr@@wr_seq [BRINGUP_SEQ] Starting APB2AXI bringup sequence
UVM_INFO tb/agent/apb_driver.sv(26) @ 0: uvm_test_top.env.apb_ag.apb_drv [APB_DRIVER] Got item addr=0x4
UVM_INFO tb/agent/apb_driver.sv(44) @ 0: uvm_test_top.env.apb_ag.apb_drv [APB_DRIVER] Driving APB transaction: addr=0x4 write=1 data=0x0
>>> TB_TOP alive at 1000  PCLK=0 ACLK=0
UVM_INFO tb/bfm/axi3_slave_bfm.sv(83) @ 55000: uvm_test_top.env.axi_bfm [AXI3_BFM] BFM is alive and ready
               65000 [APB_MON] WRITE addr=4 write=1 data=0
UVM_INFO tb/agent/apb_monitor.sv(41) @ 65000: uvm_test_top.env.apb_ag.apb_mon [APB_MONITOR] Observed APB_SEQUENCE_ITEM: addr=0x4, data=0x0, type=WRITE, slverr=0
               65000 [REGFILE] WRITE at addr=0004 data=00000000
UVM_INFO tb/seq/apb2axi_base_seq.sv(47) @ 65000: uvm_test_top.env.apb_ag.apb_seqr@@wr_seq [BASE_SEQ] APB WRITE helper: addr=0x4 data=0x0
UVM_INFO tb/agent/apb_driver.sv(26) @ 65000: uvm_test_top.env.apb_ag.apb_drv [APB_DRIVER] Got item addr=0x8
UVM_INFO tb/agent/apb_driver.sv(44) @ 65000: uvm_test_top.env.apb_ag.apb_drv [APB_DRIVER] Driving APB transaction: addr=0x8 write=1 data=0x1
UVM_INFO tb/env/apb2axi_scoreboard.sv(40) @ 66000: uvm_test_top.env.sb [SCOREBOARD] APB TXN captured: APB_SEQUENCE_ITEM: addr=0x4, data=0x0, type=WRITE, slverr=0
               95000 [APB_MON] WRITE addr=8 write=1 data=1
UVM_INFO tb/agent/apb_monitor.sv(41) @ 95000: uvm_test_top.env.apb_ag.apb_mon [APB_MONITOR] Observed APB_SEQUENCE_ITEM: addr=0x8, data=0x1, type=WRITE, slverr=0
               95000 [REGFILE] WRITE at addr=0008 data=00000001
UVM_INFO tb/seq/apb2axi_base_seq.sv(47) @ 95000: uvm_test_top.env.apb_ag.apb_seqr@@wr_seq [BASE_SEQ] APB WRITE helper: addr=0x8 data=0x1
UVM_INFO tb/agent/apb_driver.sv(26) @ 95000: uvm_test_top.env.apb_ag.apb_drv [APB_DRIVER] Got item addr=0x0
UVM_INFO tb/agent/apb_driver.sv(44) @ 95000: uvm_test_top.env.apb_ag.apb_drv [APB_DRIVER] Driving APB transaction: addr=0x0 write=1 data=0x1000
UVM_INFO tb/env/apb2axi_scoreboard.sv(40) @ 96000: uvm_test_top.env.sb [SCOREBOARD] APB TXN captured: APB_SEQUENCE_ITEM: addr=0x8, data=0x1, type=WRITE, slverr=0
>>> TB_TOP still running at 100000
              125000 [APB_MON] WRITE addr=0 write=1 data=1000
UVM_INFO tb/agent/apb_monitor.sv(41) @ 125000: uvm_test_top.env.apb_ag.apb_mon [APB_MONITOR] Observed APB_SEQUENCE_ITEM: addr=0x0, data=0x1000, type=WRITE, slverr=0
              125000 [REG_DBG] AddrLo Write Enable asserted at paddr=0000 pwdata=00001000
              125000 [REGFILE] WRITE at addr=0000 data=00001000
UVM_INFO tb/seq/apb2axi_base_seq.sv(47) @ 125000: uvm_test_top.env.apb_ag.apb_seqr@@wr_seq [BASE_SEQ] APB WRITE helper: addr=0x0 data=0x1000
UVM_INFO tb/env/apb2axi_scoreboard.sv(40) @ 126000: uvm_test_top.env.sb [SCOREBOARD] APB TXN captured: APB_SEQUENCE_ITEM: addr=0x0, data=0x1000, type=WRITE, slverr=0
              135000 [DIR] Enq TAG=0 is_wr=0 addr=0000000000001000 len=1 size=0
              135000 [REG] COMMIT addr=0000000000001000 len=1 size=0 is_write=0
              145000 [DIR] PENDING TAG=0 state=2 addr=0000000000001000
              145000 [TXN_MGR] TAG=0 -> RD FIFO
              155000 [RD_BUILDER_DBG] FIFO valid entry: tag=0 is_write=0 addr=0000000000001000 len=1
UVM_INFO tb/agent/axi_monitor.sv(60) @ 165000: uvm_test_top.env.axi_ag.axi_mon [AXI_MONITOR] AR handshake: id=0 addr=0x1000 len=1 size=0 burst=1
              165000 [RD_BUILDER_DBG] AR FIRED: TAG=0 ADDR=0000000000001000 LEN=1
UVM_INFO tb/bfm/axi3_slave_bfm.sv(139) @ 165000: uvm_test_top.env.axi_bfm [AXI3_BFM] READ: addr=0x1000 beats=2 size=1 id=0
UVM_INFO tb/agent/axi_monitor.sv(110) @ 175000: uvm_test_top.env.axi_ag.axi_mon [AXI_MONITOR] READ data beat: id=0 data=0x200 resp=0 last=0
UVM_INFO tb/seq/apb2axi_bringup_seq.sv(50) @ 175000: uvm_test_top.env.apb_ag.apb_seqr@@wr_seq [BRINGUP_SEQ] Matched AXI READ at 0x1000 OK
UVM_INFO tb/tests/apb2axi_bringup_test.sv(41) @ 175000: uvm_test_top [BRINGUP_TEST] Bring-up sequence finished
UVM_INFO tb/env/apb2axi_scoreboard.sv(41) @ 176000: uvm_test_top.env.sb [SCOREBOARD] AXI TXN captured: AXI_SEQUENCE_ITEM: axi_id=0, addr=0x1000, data=0x200, type= READ, resp=0
              185000 [RESP_COLLECT] RBEAT: RID=0 RRESP=0 RLAST=0
              185000 [RD_BUILDER_DBG] RBEAT: rid=0 rlast=0 rresp=0
              205000 [RESP_COLLECT] RBEAT: RID=0 RRESP=0 RLAST=1
              205000 [RESP_COLLECT] READ done: RID=0 RRESP=0 beats=2
              205000 [RD_BUILDER_DBG] RBEAT: rid=0 rlast=1 rresp=0
              205000 [RD_BUILDER_DBG] READ COMPLETE (TAG=0)
              225000 [RESP_HANDLER] TAG=0 is_write=0 error=0 beats=2
              235000 [DIR] COMPLETE TAG=0 is_wr=0 err=0 beats=2 resp=0
              235000 [RESP_HANDLER] TAG=0 is_write=0 error=0 beats=2
              245000 [DIR] COMPLETE TAG=0 is_wr=0 err=0 beats=2 resp=0
$finish called from file "tb/agent/apb_driver.sv", line 32.
$finish at simulation time            100125000
           V C S   S i m u l a t i o n   R e p o r t 
Time: 100125000 ps
CPU Time:      0.330 seconds;       Data structure size:   0.3Mb
Wed Nov 26 19:20:08 2025
